<?xml version="1.0" encoding="utf-8"?>
<!-- Generator: Adobe Illustrator 19.2.1, SVG Export Plug-In . SVG Version: 6.00 Build 0)  -->
<svg version="1.1" id="Layer_1" xmlns="http://www.w3.org/2000/svg" xmlns:xlink="http://www.w3.org/1999/xlink" x="0px" y="0px"
	 viewBox="0 0 238 576" style="enable-background:new 0 0 238 576;" xml:space="preserve">
<style type="text/css">
	.st0{fill:none;stroke:#F1F2F2;stroke-width:1.3832;stroke-miterlimit:10;}
</style>
<polygon class="st0" points="2.5,2 2.5,74.8 42.2,74.8 42.2,145.2 2.5,145.2 2.5,215.8 42.2,215.8 42.2,286.5 2.5,286.5 2.5,357.6 
	42.2,357.6 42.2,429.1 2.5,429.1 2.5,498.2 2.5,574 42.2,573.5 195.9,574 235.6,574 235.6,498.2 235.6,429.1 195.2,429.1 
	195.2,357.6 233.1,357.6 233.1,285.9 194.6,285.9 194.6,215.8 235.6,215.8 235.6,145.2 195.2,145.2 195.2,75.3 235.6,75.3 235.6,2 
	"/>
</svg>
