<?xml version="1.0" encoding="utf-8"?>
<!-- Generator: Adobe Illustrator 19.2.1, SVG Export Plug-In . SVG Version: 6.00 Build 0)  -->
<svg version="1.1" id="Layer_1" xmlns="http://www.w3.org/2000/svg" xmlns:xlink="http://www.w3.org/1999/xlink" x="0px" y="0px"
	 viewBox="0 0 74 55" style="enable-background:new 0 0 74 55;" xml:space="preserve">
<style type="text/css">
	.st0{fill:#a6a8ab;}
	.st1{opacity:0.6;}
	.st2{fill:#a6a8ab;}
</style>
<g>
	<g>
		<path class="st0" d="M30.7,19.7c0,1.7-0.3,3.2-0.8,4.3l-8.5,18.5c-0.2,0.5-0.6,0.9-1.1,1.2s-1,0.5-1.6,0.5s-1.1-0.2-1.6-0.5
			S16.2,43,16,42.5L7.6,23.9c-0.5-1.1-0.8-2.5-0.8-4.2c0-3.4,1.2-6.3,3.5-8.7s5.2-3.6,8.5-3.6s6.1,1.2,8.5,3.6
			C29.5,13.4,30.7,16.3,30.7,19.7z M23,24c1.2-1.2,1.8-2.6,1.8-4.3c0-1.7-0.6-3.1-1.8-4.3s-2.6-1.8-4.2-1.8c-1.7,0-3.1,0.6-4.2,1.8
			c-1.2,1.1-1.8,2.6-1.8,4.3c0,1.7,0.6,3.1,1.8,4.3c1.1,1.2,2.5,1.8,4.2,1.8C20.4,25.8,21.8,25.2,23,24z"/>
	</g>
</g>
<g class="st1">
	<g>
		<path class="st2" d="M73.6,18.8c0,2.6-0.4,4.6-1.1,6.3L59.9,52.3c-0.4,0.8-0.9,1.4-1.6,1.8c-0.7,0.4-1.5,0.7-2.3,0.7
			s-1.6-0.2-2.3-0.7s-1.3-1.1-1.6-1.8L39.5,25.1c-0.8-1.6-1.1-3.7-1.1-6.3c0-5,1.7-9.2,5.1-12.7s7.6-5.3,12.4-5.3s9,1.8,12.4,5.3
			C71.8,9.6,73.6,13.8,73.6,18.8z M62.1,25.1c1.7-1.8,2.6-3.9,2.6-6.4s-0.9-4.6-2.6-6.4c-1.7-1.6-3.7-2.5-6.2-2.5
			c-2.4,0-4.5,0.9-6.2,2.6c-1.7,1.8-2.6,3.9-2.6,6.4s0.9,4.6,2.6,6.4c1.7,1.8,3.8,2.6,6.2,2.6C58.4,27.8,60.4,26.9,62.1,25.1z"/>
	</g>
</g>
<g>
	<g>
		<path class="st0" d="M68.4,19.7c0,1.7-0.3,3.2-0.8,4.3l-8.5,18.5c-0.2,0.5-0.6,0.9-1.1,1.2s-1,0.5-1.6,0.5s-1.1-0.2-1.6-0.5
			S54,43,53.8,42.5L45.3,24c-0.5-1.1-0.8-2.5-0.8-4.3c0-3.4,1.2-6.3,3.5-8.7s5.2-3.6,8.5-3.6S62.6,8.6,65,11
			C67.2,13.4,68.4,16.3,68.4,19.7z M60.7,24c1.2-1.2,1.8-2.6,1.8-4.3c0-1.7-0.6-3.1-1.8-4.3s-2.6-1.8-4.2-1.8
			c-1.7,0-3.1,0.6-4.2,1.8c-1.2,1.2-1.8,2.6-1.8,4.3s0.6,3.1,1.8,4.3c1.2,1.2,2.6,1.8,4.2,1.8S59.5,25.2,60.7,24z"/>
	</g>
</g>
</svg>
